…
The 2.5% quantile and 97.5% quantile is therefore: 2.053 to 2.132.

# Problem 2

In this question, will explore the homocides data in 50 large US cities.

``` r
homocide_data = read_csv("data/homicide-data.csv", show_col_types = FALSE) %>% 
  replace(is.na(.),0)
homocide_data
```

    ## # A tibble: 52,179 × 12
    ##   uid    repor…¹ victi…² victi…³ victi…⁴ victi…⁵ victi…⁶ city  state   lat   lon
    ##   <chr>    <dbl> <chr>   <chr>   <chr>   <chr>   <chr>   <chr> <chr> <dbl> <dbl>
    ## 1 Alb-0…  2.01e7 GARCIA  JUAN    Hispan… 78      Male    Albu… NM     35.1 -107.
    ## 2 Alb-0…  2.01e7 MONTOYA CAMERON Hispan… 17      Male    Albu… NM     35.1 -107.
    ## 3 Alb-0…  2.01e7 SATTER… VIVIANA White   15      Female  Albu… NM     35.1 -107.
    ## 4 Alb-0…  2.01e7 MENDIO… CARLOS  Hispan… 32      Male    Albu… NM     35.1 -107.
    ## 5 Alb-0…  2.01e7 MULA    VIVIAN  White   72      Female  Albu… NM     35.1 -107.
    ## # … with 52,174 more rows, 1 more variable: disposition <chr>, and abbreviated
    ## #   variable names ¹​reported_date, ²​victim_last, ³​victim_first, ⁴​victim_race,
    ## #   ⁵​victim_age, ⁶​victim_sex

Then, create a city_state variable to combine city and state together,
as well as a binary variable indicating solved and non-solved case.

``` r
homocide_data_new = 
  homocide_data %>%
  mutate(city_state = str_c(city, ", ", state)) %>% 
  mutate(Whether_solved = ifelse(homocide_data$disposition=='Closed without arrest' | homocide_data$disposition=='Open/No arrest',0,1))

homocide_data_new %>% 
  select(city_state, Whether_solved)
```

    ## # A tibble: 52,179 × 2
    ##   city_state      Whether_solved
    ##   <chr>                    <dbl>
    ## 1 Albuquerque, NM              0
    ## 2 Albuquerque, NM              1
    ## 3 Albuquerque, NM              0
    ## 4 Albuquerque, NM              1
    ## 5 Albuquerque, NM              0
    ## # … with 52,174 more rows
